<?xml version="1.0" encoding="UTF-8"?>
<!DOCTYPE suite SYSTEM "http://testng.org/testng-1.0.dtd">
<suite verbose="0" name="Failed suite [net.mobileembrace.test.SeriousComponentTest]">
  <test name="Command line test(failed)" preserve-order="false">
    <groups>
      <run>
        <include name="integration"/>
      </run>
    </groups>
    <classes>
      <class name="net.mobileembrace.test.SeriousComponentTest">
        <methods>
          <include name="testLargeFile" invocation-numbers="0"/>
        </methods>
      </class>
    </classes>
  </test>
</suite>
